﻿{
  "editable": true,
  "deletable": true,
  "insertable": true,

  "gridOptions": {
    "columnDefs": [
      {
        "name": "C",
        "displayName": "Code",
        "field": "Code",
        "editable": "new"
      },

      {
        "name": "N",
        "displayName": "Description",
        "field": "ExamName"
      },
      {
        "name": "level",
        "displayName": "Class Level",
        "lookup": "levels",
        "field": "ExamLevel"
      },
      {
        "name": "regional",
        "displayName": "Regional",
        "lookup": "levels",
        "field": "RegionalExam"
      }

    ]
  }
}
